__end_of_zero_length 148 0 STRCODE 0
__CFG_WRT$OFF 0 0 ABS 0
_RC0 70 0 ABS 0
_RA5 65 0 ABS 0
__S0 8009 0 ABS 0
__S1 7E 0 ABS 0
__S2 0 0 ABS 0
__S3 0 0 ABS 0
__Hintentry 15 0 CODE 0
__Lintentry 4 0 CODE 0
__CFG_BOREN$ON 0 0 ABS 0
__pintentry 4 0 CODE 0
__size_of_PIN_MANAGER_IOC 0 0 ABS 0
_LATA 10C 0 ABS 0
_LATC 10E 0 ABS 0
_WPUA 20C 0 ABS 0
_WPUC 20E 0 ABS 0
__end_of_PIN_MANAGER_Initialize FC 0 CODE 0
__end_of_TMR1_Initialize 12E 0 CODE 0
_data 20 0 BANK0 1
_main FC 0 CODE 0
___sp 0 0 STACK 2
btemp 7E 0 ABS 0
ltemp 7E 0 ABS 0
ttemp 7E 0 ABS 0
wtemp 7E 0 ABS 0
start 15 0 CODE 0
_TMR1_WriteTimer 12E 0 CODE 0
_TMR1H 17 0 ABS 0
__size_ofi1_TMR1_ReadTimer 0 0 ABS 0
_TMR1L 16 0 ABS 0
_TRISA 8C 0 ABS 0
_RCSTA 19D 0 ABS 0
__size_of_TMR1_StopTimer 0 0 ABS 0
_TRISC 8E 0 ABS 0
reset_vec 0 0 CODE 0
_TXSTA 19E 0 ABS 0
__size_ofi1_TMR1_StopTimer 0 0 ABS 0
_T1CON 18 0 ABS 0
ltemp0 7E 0 ABS 0
ttemp0 7E 0 ABS 0
wtemp0 7E 0 ABS 0
ltemp1 82 0 ABS 0
ttemp1 81 0 ABS 0
wtemp1 80 0 ABS 0
ltemp2 86 0 ABS 0
ttemp2 84 0 ABS 0
wtemp2 82 0 ABS 0
ltemp3 80 0 ABS 0
ttemp3 87 0 ABS 0
wtemp3 84 0 ABS 0
ttemp4 7F 0 ABS 0
wtemp4 86 0 ABS 0
wtemp5 88 0 ABS 0
wtemp6 7F 0 ABS 0
__Hconfig 8009 0 CONFIG 0
__Lconfig 8007 0 CONFIG 0
TMR1_WriteTimer@timerVal 70 0 COMMON 1
__Hbigram 0 0 ABS 0
__Lbigram 0 0 ABS 0
__Hram 0 0 ABS 0
__Lram 0 0 ABS 0
__CFG_STVREN$ON 0 0 ABS 0
__end_of_one_length 140 0 STRCODE 0
int$flags 7E 0 ABS 0
_IOCAF2 1C9A 0 ABS 0
__Hfunctab 0 0 CODE 0
__Lfunctab 0 0 CODE 0
_IOCAN2 1C92 0 ABS 0
_INTERRUPT_InterruptManager 4 0 CODE 0
__Hcommon 0 0 ABS 0
__Lcommon 0 0 ABS 0
_PIE1bits 91 0 ABS 0
__Heeprom_data 0 0 EEDATA 3
__Leeprom_data 0 0 EEDATA 3
_PIR1bits 11 0 ABS 0
_start_pulse 140 0 STRCODE 0
___int_sp 0 0 STACK 2
__CFG_CLKOUTEN$OFF 0 0 ABS 0
_ANSELA 18C 0 ABS 0
_ANSELC 18E 0 ABS 0
_SPBRGH 19C 0 ABS 0
_SPBRGL 19B 0 ABS 0
__size_of_EUSART_Initialize 0 0 ABS 0
_T1GCON 19 0 ABS 0
_APFCON 11D 0 ABS 0
_OSCCON 99 0 ABS 0
__Habs1 0 0 ABS 0
__Labs1 0 0 ABS 0
__Hsfr0 0 0 ABS 0
__Lsfr0 0 0 ABS 0
__Hsfr1 0 0 ABS 0
__Lsfr1 0 0 ABS 0
__Hsfr2 0 0 ABS 0
__Lsfr2 0 0 ABS 0
__Hsfr3 0 0 ABS 0
__Lsfr3 0 0 ABS 0
__Hsfr4 0 0 ABS 0
__Lsfr4 0 0 ABS 0
__Hsfr5 0 0 ABS 0
__Lsfr5 0 0 ABS 0
__Hsfr6 0 0 ABS 0
__Lsfr6 0 0 ABS 0
__Hsfr7 0 0 ABS 0
__Lsfr7 0 0 ABS 0
_zero_length 144 0 STRCODE 0
__Hsfr8 0 0 ABS 0
__Lsfr8 0 0 ABS 0
__Hsfr9 0 0 ABS 0
__Lsfr9 0 0 ABS 0
_buzzer_enable 26 0 BANK0 1
TMR1_ISR@CountCallBack 7B 0 COMMON 1
?i1_TMR1_ReadTimer 70 0 COMMON 1
_prev_timer_value 24 0 BANK0 1
__Hcode 0 0 ABS 0
__Lcode 0 0 ABS 0
i1TMR1_ReadTimer@readVal 72 0 COMMON 1
stackhi 206F 0 ABS 0
__HcstackBANK0 0 0 ABS 0
__LcstackBANK0 0 0 ABS 0
__pcstackBANK0 27 0 BANK0 1
stacklo 200F 0 ABS 0
__Hinit 15 0 CODE 0
__Linit 15 0 CODE 0
__end_of_main 10F 0 CODE 0
__Htext 0 0 ABS 0
__Ltext 0 0 ABS 0
end_of_initialization 20 0 CODE 0
PIN_MANAGER_IOC@time 77 0 COMMON 1
__HnvBANK0 0 0 ABS 0
__LnvBANK0 0 0 ABS 0
_TMR1_StartTimer 176 0 CODE 0
__pnvBANK0 2D 0 BANK0 1
__Hsfr10 0 0 ABS 0
__Lsfr10 0 0 ABS 0
__Hsfr20 0 0 ABS 0
__Lsfr20 0 0 ABS 0
__Hsfr30 0 0 ABS 0
__Hsfr11 0 0 ABS 0
__Lsfr30 0 0 ABS 0
__Lsfr11 0 0 ABS 0
__Hsfr21 0 0 ABS 0
__Lsfr21 0 0 ABS 0
__Hsfr31 0 0 ABS 0
__Hsfr12 0 0 ABS 0
__Lsfr31 0 0 ABS 0
__Lsfr12 0 0 ABS 0
__Hsfr22 0 0 ABS 0
__Lsfr22 0 0 ABS 0
__Hsfr13 0 0 ABS 0
__Lsfr13 0 0 ABS 0
__Hsfr23 0 0 ABS 0
__Lsfr23 0 0 ABS 0
__Hsfr14 0 0 ABS 0
__Lsfr14 0 0 ABS 0
__end_of_TMR1_StopTimer 17E 0 CODE 0
__Hsfr24 0 0 ABS 0
__Lsfr24 0 0 ABS 0
__Hsfr15 0 0 ABS 0
__Lsfr15 0 0 ABS 0
__Hsfr25 0 0 ABS 0
__Lsfr25 0 0 ABS 0
__Hsfr16 0 0 ABS 0
__Lsfr16 0 0 ABS 0
__Hsfr26 0 0 ABS 0
__Lsfr26 0 0 ABS 0
__Hsfr17 0 0 ABS 0
__Lsfr17 0 0 ABS 0
__Hsfr27 0 0 ABS 0
__Lsfr27 0 0 ABS 0
__Hsfr18 0 0 ABS 0
__Lsfr18 0 0 ABS 0
PIN_MANAGER_IOC@delta 79 0 COMMON 1
__Hsfr28 0 0 ABS 0
__Lsfr28 0 0 ABS 0
__Hsfr19 0 0 ABS 0
__Lsfr19 0 0 ABS 0
__Hsfr29 0 0 ABS 0
__Lsfr29 0 0 ABS 0
PIN_MANAGER_IOC@index 76 0 COMMON 1
_TMR1_ReadTimer 148 0 CODE 0
_T1CONbits 18 0 ABS 0
__Hstrings 0 0 ABS 0
__Lstrings 0 0 ABS 0
_SYSTEM_Initialize 172 0 CODE 0
__end_ofi1_TMR1_ReadTimer 16C 0 CODE 0
_OSCTUNE 98 0 ABS 0
_EUSART_Initialize 154 0 CODE 0
__end_ofi1_TMR1_StopTimer 17C 0 CODE 0
__size_of_TMR1_ReadTimer 0 0 ABS 0
__Hbank0 0 0 ABS 0
__Lbank0 0 0 ABS 0
_BAUDCON 19F 0 ABS 0
__Hbank1 0 0 ABS 0
__Lbank1 0 0 ABS 0
__Hbank2 0 0 BANK2 1
__Lbank2 0 0 BANK2 1
__Hbank3 0 0 BANK3 1
__Lbank3 0 0 BANK3 1
___latbits 0 0 ABS 0
__Hbank4 0 0 BANK4 1
__Lbank4 0 0 BANK4 1
_OSCSTAT 9A 0 ABS 0
__Hbank5 0 0 BANK5 1
__Lbank5 0 0 BANK5 1
__Hpowerup 0 0 CODE 0
__Lpowerup 0 0 CODE 0
__Hbank6 0 0 BANK6 1
__Lbank6 0 0 BANK6 1
__Hbank7 0 0 BANK7 1
__Lbank7 0 0 BANK7 1
__Hbank8 0 0 BANK8 1
__Lbank8 0 0 BANK8 1
__size_of_TMR1_WriteTimer 0 0 ABS 0
__Hbank9 0 0 BANK9 1
__Lbank9 0 0 BANK9 1
__size_ofi1_TMR1_StartTimer 0 0 ABS 0
__ptext1 148 0 CODE 0
__ptext2 17C 0 CODE 0
__ptext3 172 0 CODE 0
__ptext4 11F 0 CODE 0
__ptext5 176 0 CODE 0
__ptext6 E3 0 CODE 0
__ptext7 16C 0 CODE 0
__end_of_EUSART_Initialize 160 0 CODE 0
__ptext8 154 0 CODE 0
__Hclrtext 0 0 ABS 0
__Lclrtext 0 0 ABS 0
__end_of_start_pulse 144 0 STRCODE 0
__end_of__initialization 20 0 CODE 0
_PIN_MANAGER_IOC 23 0 CODE 0
_TMR1_Initialize 11F 0 CODE 0
__Hidloc 0 0 IDLOC 0
__Lidloc 0 0 IDLOC 0
__Hstack 0 0 STACK 2
__Lstack 0 0 STACK 2
__Hspace_0 8009 0 ABS 0
__Lspace_0 0 0 ABS 0
__CFG_IESO$ON 0 0 ABS 0
__end_ofi1_TMR1_StartTimer 182 0 CODE 0
__Hspace_1 7E 0 ABS 0
__Lspace_1 0 0 ABS 0
__Hspace_2 0 0 ABS 0
__Lspace_2 0 0 ABS 0
__Hcinit 23 0 CODE 0
__Lcinit 16 0 CODE 0
i1_TMR1_StopTimer 179 0 CODE 0
__Hspace_3 0 0 ABS 0
__Lspace_3 0 0 ABS 0
__size_of_main 0 0 ABS 0
__end_of_INTERRUPT_InterruptManager 15 0 CODE 0
_one_length 13C 0 STRCODE 0
i1_TMR1_ReadTimer 160 0 CODE 0
_TMR1_StopTimer 17C 0 CODE 0
__CFG_BORV$LO 0 0 ABS 0
_PIN_MANAGER_Initialize E3 0 CODE 0
__end_of_TMR1_CallBack 180 0 CODE 0
__CFG_MCLRE$OFF 0 0 ABS 0
__end_of_TMR1_WriteTimer 13C 0 CODE 0
__end_of_TMR1_StartTimer 179 0 CODE 0
__size_of_TMR1_ISR 0 0 ABS 0
i1_TMR1_StartTimer 180 0 CODE 0
_bit_number 7D 0 COMMON 1
__size_of_SYSTEM_Initialize 0 0 ABS 0
__HbssBANK0 0 0 ABS 0
__LbssBANK0 0 0 ABS 0
__Hbank10 0 0 BANK10 1
__pbssBANK0 20 0 BANK0 1
__Lbank10 0 0 BANK10 1
__Hpa_nodes 0 0 ABS 0
__Lpa_nodes 0 0 ABS 0
__Hbank20 0 0 BANK20 1
__Lbank20 0 0 BANK20 1
__Hbank30 0 0 BANK30 1
__Hbank11 0 0 BANK11 1
__Lbank30 0 0 BANK30 1
__Lbank11 0 0 BANK11 1
__end_of_PIN_MANAGER_IOC E3 0 CODE 0
__Hbank21 0 0 BANK21 1
__Lbank21 0 0 BANK21 1
__end_of_OSCILLATOR_Initialize 172 0 CODE 0
__Hbank31 0 0 BANK31 1
__Hbank12 0 0 BANK12 1
__Lbank31 0 0 BANK31 1
__Lbank12 0 0 BANK12 1
__end_of_SYSTEM_Initialize 176 0 CODE 0
__size_of_TMR1_StartTimer 0 0 ABS 0
__Hbank22 0 0 BANK22 1
__Lbank22 0 0 BANK22 1
__end_of_TMR1_ReadTimer 154 0 CODE 0
__Hbank13 0 0 BANK13 1
__Lbank13 0 0 BANK13 1
__Hbank23 0 0 BANK23 1
__Lbank23 0 0 BANK23 1
__Hbank14 0 0 BANK14 1
__Lbank14 0 0 BANK14 1
__Hstringtext 0 0 ABS 0
__Lstringtext 0 0 ABS 0
__Hbank24 0 0 BANK24 1
__Lbank24 0 0 BANK24 1
__pstringtext 13C 0 STRCODE 0
__ptext10 10F 0 CODE 0
__Hbank15 0 0 BANK15 1
__Lbank15 0 0 BANK15 1
__Hbank25 0 0 BANK25 1
__Lbank25 0 0 BANK25 1
__ptext11 17E 0 CODE 0
__Hbank16 0 0 BANK16 1
__Lbank16 0 0 BANK16 1
__Hbank26 0 0 BANK26 1
__Lbank26 0 0 BANK26 1
_TMR1_CallBack 17E 0 CODE 0
__ptext12 23 0 CODE 0
__Hbank17 0 0 BANK17 1
__Lbank17 0 0 BANK17 1
__Hbank27 0 0 BANK27 1
__Lbank27 0 0 BANK27 1
__CFG_PLLEN$OFF 0 0 ABS 0
__ptext13 160 0 CODE 0
__Hbank18 0 0 BANK18 1
__Lbank18 0 0 BANK18 1
__Hbank28 0 0 BANK28 1
__Lbank28 0 0 BANK28 1
__ptext14 179 0 CODE 0
__Hbank19 0 0 BANK19 1
__Lbank19 0 0 BANK19 1
__Hbank29 0 0 BANK29 1
__Lbank29 0 0 BANK29 1
__ptext15 180 0 CODE 0
__ptext16 12E 0 CODE 0
?_TMR1_ReadTimer 27 0 BANK0 1
__CFG_PWRTE$OFF 0 0 ABS 0
__HbssCOMMON 0 0 ABS 0
__LbssCOMMON 0 0 ABS 0
__pbssCOMMON 7B 0 COMMON 1
_timer1ReloadVal 2D 0 BANK0 1
_INTCONbits B 0 ABS 0
__Hend_init 16 0 CODE 0
__Lend_init 15 0 CODE 0
TMR1_ReadTimer@readVal 29 0 BANK0 1
__size_of_TMR1_CallBack 0 0 ABS 0
__size_of_TMR1_Initialize 0 0 ABS 0
_OSCILLATOR_Initialize 16C 0 CODE 0
__size_of_INTERRUPT_InterruptManager 0 0 ABS 0
__Hreset_vec 1 0 CODE 0
__Lreset_vec 0 0 CODE 0
__size_of_PIN_MANAGER_Initialize 0 0 ABS 0
intlevel0 0 0 CODE 0
__CFG_WDTE$OFF 0 0 ABS 0
intlevel1 0 0 CODE 0
intlevel2 0 0 CODE 0
intlevel3 0 0 CODE 0
intlevel4 0 0 CODE 0
intlevel5 0 0 CODE 0
_TMR1_ISR 10F 0 CODE 0
__HcstackCOMMON 0 0 ABS 0
__LcstackCOMMON 0 0 ABS 0
__pcstackCOMMON 70 0 COMMON 1
__CFG_CPD$OFF 0 0 ABS 0
start_initialization 16 0 CODE 0
__end_of_TMR1_ISR 11F 0 CODE 0
__Hmaintext 0 0 ABS 0
__Lmaintext 0 0 ABS 0
__pmaintext FC 0 CODE 0
__size_of_OSCILLATOR_Initialize 0 0 ABS 0
_OPTION_REGbits 95 0 ABS 0
__CFG_FOSC$INTOSC 0 0 ABS 0
__initialization 16 0 CODE 0
__CFG_CP$OFF 0 0 ABS 0
__CFG_FCMEN$ON 0 0 ABS 0
__CFG_LVP$OFF 0 0 ABS 0
%segments
reset_vec 0 1 CODE 0 0
intentry 8 277 CODE 8 0
config 1000E 10011 CONFIG 1000E 0
cstackCOMMON 70 7D COMMON 70 1
bssBANK0 20 2E BANK0 20 1
stringtext 278 28F STRCODE 278 0
text1 290 303 CODE 290 0
%locals
dist/default/production\ir_receiver.X.production.obj
C:\Users\99E7~1\AppData\Local\Temp\s998.
1947 16 0 CODE 0
1950 16 0 CODE 0
1977 16 0 CODE 0
1978 17 0 CODE 0
1979 18 0 CODE 0
1983 19 0 CODE 0
1984 1A 0 CODE 0
1985 1B 0 CODE 0
1986 1C 0 CODE 0
1987 1D 0 CODE 0
1988 1E 0 CODE 0
1989 1F 0 CODE 0
1995 20 0 CODE 0
1997 20 0 CODE 0
1998 21 0 CODE 0
1999 22 0 CODE 0
main.c
52 FC 0 CODE 0
54 FC 0 CODE 0
60 FD 0 CODE 0
63 FE 0 CODE 0
72 FF 0 CODE 0
74 102 0 CODE 0
mcc_generated_files/tmr1.c
102 148 0 CODE 0
104 148 0 CODE 0
105 149 0 CODE 0
106 14E 0 CODE 0
107 14F 0 CODE 0
108 153 0 CODE 0
97 17C 0 CODE 0
99 17C 0 CODE 0
100 17D 0 CODE 0
mcc_generated_files/mcc.c
70 172 0 CODE 0
71 172 0 CODE 0
72 173 0 CODE 0
73 174 0 CODE 0
74 175 0 CODE 0
mcc_generated_files/tmr1.c
64 11F 0 CODE 0
68 11F 0 CODE 0
71 122 0 CODE 0
74 123 0 CODE 0
77 124 0 CODE 0
80 125 0 CODE 0
83 12A 0 CODE 0
86 12B 0 CODE 0
89 12D 0 CODE 0
92 176 0 CODE 0
94 176 0 CODE 0
95 178 0 CODE 0
mcc_generated_files/pin_manager.c
52 E3 0 CODE 0
53 E3 0 CODE 0
54 E5 0 CODE 0
55 E8 0 CODE 0
56 EA 0 CODE 0
58 EC 0 CODE 0
59 EE 0 CODE 0
60 F0 0 CODE 0
61 F2 0 CODE 0
63 F4 0 CODE 0
65 F6 0 CODE 0
68 F8 0 CODE 0
71 FA 0 CODE 0
73 FB 0 CODE 0
mcc_generated_files/mcc.c
77 16C 0 CODE 0
79 16C 0 CODE 0
81 16F 0 CODE 0
83 170 0 CODE 0
86 171 0 CODE 0
mcc_generated_files/eusart.c
56 154 0 CODE 0
60 154 0 CODE 0
63 157 0 CODE 0
66 159 0 CODE 0
69 15B 0 CODE 0
72 15D 0 CODE 0
74 15F 0 CODE 0
mcc_generated_files/interrupt_manager.c
52 4 0 CODE 0
54 6 0 CODE 0
55 9 0 CODE 0
58 A 0 CODE 0
59 B 0 CODE 0
60 12 0 CODE 0
64 13 0 CODE 0
mcc_generated_files/tmr1.c
142 10F 0 CODE 0
146 10F 0 CODE 0
148 110 0 CODE 0
149 112 0 CODE 0
152 114 0 CODE 0
154 11B 0 CODE 0
157 11C 0 CODE 0
160 11E 0 CODE 0
162 17E 0 CODE 0
164 17E 0 CODE 0
167 17F 0 CODE 0
mcc_generated_files/pin_manager.c
92 23 0 CODE 0
96 23 0 CODE 0
98 26 0 CODE 0
100 2B 0 CODE 0
101 33 0 CODE 0
102 37 0 CODE 0
104 59 0 CODE 0
105 5A 0 CODE 0
106 5E 0 CODE 0
107 5F 0 CODE 0
109 63 0 CODE 0
110 75 0 CODE 0
112 94 0 CODE 0
113 A4 0 CODE 0
114 A5 0 CODE 0
115 A6 0 CODE 0
121 C5 0 CODE 0
130 C6 0 CODE 0
132 CA 0 CODE 0
134 D6 0 CODE 0
135 D8 0 CODE 0
136 DA 0 CODE 0
137 DD 0 CODE 0
140 DF 0 CODE 0
144 E0 0 CODE 0
146 E2 0 CODE 0
mcc_generated_files/tmr1.c
102 160 0 CODE 0
104 160 0 CODE 0
105 161 0 CODE 0
106 166 0 CODE 0
107 167 0 CODE 0
108 16B 0 CODE 0
97 179 0 CODE 0
99 179 0 CODE 0
100 17B 0 CODE 0
92 180 0 CODE 0
94 180 0 CODE 0
95 181 0 CODE 0
110 12E 0 CODE 0
111 12E 0 CODE 0
113 130 0 CODE 0
116 131 0 CODE 0
117 133 0 CODE 0
120 135 0 CODE 0
121 136 0 CODE 0
123 137 0 CODE 0
124 139 0 CODE 0
126 13B 0 CODE 0
